%YAML 1.1
%TAG !u! tag:unity3d.com,2011:
--- !u!114 &11400000
MonoBehaviour:
  m_ObjectHideFlags: 0
  m_CorrespondingSourceObject: {fileID: 0}
  m_PrefabInstance: {fileID: 0}
  m_PrefabAsset: {fileID: 0}
  m_GameObject: {fileID: 0}
  m_Enabled: 1
  m_EditorHideFlags: 0
  m_Script: {fileID: -1893448595, guid: a040fb66244a7f54289914d98ea4ef7d, type: 3}
  m_Name: EnemyWalk
  m_EditorClassIdentifier: 
  _data:
    _json: '{"graph":{"variables":{"collection":{"$content":[],"$version":"A"},"$version":"A"},"controlInputDefinitions":[],"controlOutputDefinitions":[],"valueInputDefinitions":[{"hasDefaultValue":true,"defaultValue":{"$content":0.0,"$type":"System.Single"},"_type":"System.Single","key":"direction","label":null,"summary":null,"hideLabel":false}],"valueOutputDefinitions":[],"title":null,"summary":null,"pan":{"x":1539.966,"y":-74.20276},"zoom":0.7500001,"elements":[{"defaultValues":{},"position":{"x":-329.0,"y":1.0},"guid":"e5d53347-5328-401d-8aca-7e3d8663cb15","$version":"A","$type":"Bolt.GraphInput","$id":"10"},{"coroutine":false,"defaultValues":{},"position":{"x":28.0,"y":-193.0},"guid":"929bcba7-ac50-4fc7-9b37-8d692df72636","$version":"A","$type":"Bolt.Update","$id":"12"},{"defaultValues":{},"position":{"x":1827.0,"y":-118.0},"guid":"2704e48c-215a-4345-9c4b-f348f7f6fd45","$version":"A","$type":"Bolt.ScalarAbsolute","$id":"14"},{"chainable":false,"member":{"name":".ctor","parameterTypes":["System.Single","System.Single","System.Single"],"targetType":"UnityEngine.Vector3","targetTypeName":"UnityEngine.Vector3","$version":"A"},"defaultValues":{"%x":{"$content":0.0,"$type":"System.Single"},"%y":{"$content":1.0,"$type":"System.Single"},"%z":{"$content":1.0,"$type":"System.Single"}},"position":{"x":544.0,"y":4.0},"guid":"d3501f38-a869-4cb5-8f5b-a53080c751df","$version":"A","$type":"Bolt.InvokeMember","$id":"16"},{"defaultValues":{},"position":{"x":540.0,"y":-199.0},"guid":"baa57f2a-c819-404f-bfaf-42de2c77e246","$version":"A","$type":"Bolt.Branch","$id":"19"},{"specifyFallback":false,"kind":"Object","defaultValues":{"name":{"$content":"Speed","$type":"System.String"},"object":null},"position":{"x":-181.0,"y":-149.0},"guid":"4da426d2-7186-485e-8b0e-87af919461ee","$version":"A","$type":"Bolt.GetVariable","$id":"21"},{"kind":"Graph","defaultValues":{"name":{"$content":"Movement","$type":"System.String"}},"position":{"x":178.0,"y":-147.0},"guid":"5b18aaf7-7239-431f-8089-09b0eb1f9ba3","$version":"A","$type":"Bolt.SetVariable","$id":"23"},{"defaultValues":{},"position":{"x":-170.0,"y":1.0},"guid":"220d41c6-179e-4b04-9e14-44432a379557","$version":"A","$type":"Bolt.ScalarNormalize","$id":"25"},{"chainable":false,"member":{"name":"velocity","parameterTypes":null,"targetType":"UnityEngine.Rigidbody","targetTypeName":"UnityEngine.Rigidbody","$version":"A"},"defaultValues":{"target":null,"input":{"x":0.0,"y":0.0,"z":0.0,"$type":"UnityEngine.Vector3"}},"position":{"x":1419.0,"y":-201.0},"guid":"998d59a1-72d6-4cce-ab07-8549f812a508","$version":"A","$type":"Bolt.SetMember","$id":"27"},{"defaultValues":{"b":{"$content":1.0,"$type":"System.Single"}},"position":{"x":14.0,"y":-80.0},"guid":"5a5ead80-dcd9-4b72-bf18-92a734936b63","$version":"A","$type":"Bolt.ScalarMultiply","$id":"30"},{"specifyFallback":false,"kind":"Graph","defaultValues":{"name":{"$content":"Movement","$type":"System.String"}},"position":{"x":1628.0,"y":-132.0},"guid":"57c7dd66-ced2-4991-a1d3-34a5920f66a0","$version":"A","$type":"Bolt.GetVariable","$id":"32"},{"specifyFallback":false,"kind":"Graph","defaultValues":{"name":{"$content":"Movement","$type":"System.String"}},"position":{"x":1102.0,"y":-84.0},"guid":"06b1d576-fdd4-4525-a108-b06a6ded6b45","$version":"A","$type":"Bolt.GetVariable","$id":"34"},{"chainable":false,"member":{"name":"SetFloat","parameterTypes":["System.String","System.Single"],"targetType":"UnityEngine.Animator","targetTypeName":"UnityEngine.Animator","$version":"A"},"defaultValues":{"target":null,"%name":{"$content":"Speed","$type":"System.String"},"%value":{"$content":0.0,"$type":"System.Single"}},"position":{"x":1983.0,"y":-203.0},"guid":"e8a533c0-0932-4718-913c-13cc6322e9d3","$version":"A","$type":"Bolt.InvokeMember","$id":"36"},{"member":{"name":"y","parameterTypes":null,"targetType":"UnityEngine.Vector2","targetTypeName":"UnityEngine.Vector2","$version":"A"},"defaultValues":{"target":{"x":0.0,"y":0.0,"$type":"UnityEngine.Vector2"}},"position":{"x":1136.0,"y":18.0},"guid":"83c081ea-12df-4836-a6f0-d1da943b2bf2","$version":"A","$type":"Bolt.GetMember","$id":"39"},{"chainable":false,"member":{"name":"localScale","parameterTypes":null,"targetType":"UnityEngine.Transform","targetTypeName":"UnityEngine.Transform","$version":"A"},"defaultValues":{"target":null,"input":{"x":0.0,"y":0.0,"z":0.0,"$type":"UnityEngine.Vector3"}},"position":{"x":694.0,"y":-107.0},"guid":"001e0b8d-eed8-47c6-b017-4ae1853c5de3","$version":"A","$type":"Bolt.SetMember","$id":"42"},{"chainable":false,"member":{"name":".ctor","parameterTypes":["System.Single","System.Single"],"targetType":"UnityEngine.Vector2","targetTypeName":"UnityEngine.Vector2","$version":"A"},"defaultValues":{"%x":{"$content":0.0,"$type":"System.Single"},"%y":{"$content":0.0,"$type":"System.Single"}},"position":{"x":1289.0,"y":-88.0},"guid":"22b924a5-7c50-456b-a857-88be5667d38a","$version":"A","$type":"Bolt.InvokeMember","$id":"45"},{"numeric":true,"defaultValues":{"b":{"$content":0.0,"$type":"System.Single"}},"position":{"x":397.0,"y":-75.0},"guid":"f86f870e-8a0e-4035-96a6-707dcbc73820","$version":"A","$type":"Bolt.Equal","$id":"48"},{"member":{"name":"velocity","parameterTypes":null,"targetType":"UnityEngine.Rigidbody","targetTypeName":"UnityEngine.Rigidbody","$version":"A"},"defaultValues":{"target":null},"position":{"x":936.0,"y":19.0},"guid":"d1c1f453-5174-41f5-807c-2139abe715ef","$version":"A","$type":"Bolt.GetMember","$id":"50"},{"sourceUnit":{"$ref":"19"},"sourceKey":"ifFalse","destinationUnit":{"$ref":"42"},"destinationKey":"assign","guid":"5564b40c-2ad9-49af-a8b1-9f6ef457e0d2","$type":"Bolt.ControlConnection"},{"sourceUnit":{"$ref":"12"},"sourceKey":"trigger","destinationUnit":{"$ref":"23"},"destinationKey":"assign","guid":"2f8b6c75-ee0e-422e-bb33-f333aab3e248","$type":"Bolt.ControlConnection"},{"sourceUnit":{"$ref":"23"},"sourceKey":"assigned","destinationUnit":{"$ref":"19"},"destinationKey":"enter","guid":"94e9b2ca-00b0-4405-9812-deb5563dbb45","$type":"Bolt.ControlConnection"},{"sourceUnit":{"$ref":"42"},"sourceKey":"assigned","destinationUnit":{"$ref":"27"},"destinationKey":"assign","guid":"222dd252-3ea5-4d26-b347-aa2aae39eff3","$type":"Bolt.ControlConnection"},{"sourceUnit":{"$ref":"19"},"sourceKey":"ifTrue","destinationUnit":{"$ref":"27"},"destinationKey":"assign","guid":"48d6eb74-efea-43ac-afa0-d68f82ebb156","$type":"Bolt.ControlConnection"},{"sourceUnit":{"$ref":"25"},"sourceKey":"output","destinationUnit":{"$ref":"48"},"destinationKey":"a","guid":"ea93e3f3-48db-4828-acbb-41a0a193067b","$type":"Bolt.ValueConnection"},{"sourceUnit":{"$ref":"16"},"sourceKey":"result","destinationUnit":{"$ref":"42"},"destinationKey":"input","guid":"7b4fe40d-7caa-4646-9c26-a4f51ca29b34","$type":"Bolt.ValueConnection"},{"sourceUnit":{"$ref":"10"},"sourceKey":"direction","destinationUnit":{"$ref":"25"},"destinationKey":"input","guid":"61ce2bb1-0a6b-46eb-a65f-976e57851c8e","$type":"Bolt.ValueConnection"},{"sourceUnit":{"$ref":"25"},"sourceKey":"output","destinationUnit":{"$ref":"30"},"destinationKey":"a","guid":"f957efd2-b364-409a-85c4-866384846f47","$type":"Bolt.ValueConnection"},{"sourceUnit":{"$ref":"30"},"sourceKey":"product","destinationUnit":{"$ref":"23"},"destinationKey":"input","guid":"131aedeb-df1b-438d-92d6-c315b5c202ff","$type":"Bolt.ValueConnection"},{"sourceUnit":{"$ref":"25"},"sourceKey":"output","destinationUnit":{"$ref":"16"},"destinationKey":"%x","guid":"cf7aba44-6d9c-48c2-bce8-90f6564ebb9d","$type":"Bolt.ValueConnection"},{"sourceUnit":{"$ref":"21"},"sourceKey":"value","destinationUnit":{"$ref":"30"},"destinationKey":"b","guid":"97ca39fc-4876-4d4a-a27a-6d15be56d94d","$type":"Bolt.ValueConnection"},{"sourceUnit":{"$ref":"32"},"sourceKey":"value","destinationUnit":{"$ref":"14"},"destinationKey":"input","guid":"6f754710-9c5c-4480-bf9d-8c3776ee63a7","$type":"Bolt.ValueConnection"},{"sourceUnit":{"$ref":"34"},"sourceKey":"value","destinationUnit":{"$ref":"45"},"destinationKey":"%x","guid":"6b93a2c3-3df9-4996-a635-481a821d5431","$type":"Bolt.ValueConnection"},{"sourceUnit":{"$ref":"14"},"sourceKey":"output","destinationUnit":{"$ref":"36"},"destinationKey":"%value","guid":"00da85e2-3976-4d85-a4cb-4bb3854aa125","$type":"Bolt.ValueConnection"},{"sourceUnit":{"$ref":"48"},"sourceKey":"equal","destinationUnit":{"$ref":"19"},"destinationKey":"condition","guid":"99e2fdfc-169e-4778-ad2b-a3cdc2996611","$type":"Bolt.ValueConnection"},{"sourceUnit":{"$ref":"39"},"sourceKey":"value","destinationUnit":{"$ref":"45"},"destinationKey":"%y","guid":"a70abaa3-2800-4148-a76c-b7d7f9469db8","$type":"Bolt.ValueConnection"},{"sourceUnit":{"$ref":"45"},"sourceKey":"result","destinationUnit":{"$ref":"27"},"destinationKey":"input","guid":"00b8613f-8fb2-4475-8567-fae248cee2e1","$type":"Bolt.ValueConnection"},{"sourceUnit":{"$ref":"50"},"sourceKey":"value","destinationUnit":{"$ref":"39"},"destinationKey":"target","guid":"be778e6a-d401-4156-8aed-5cddf51a8d45","$type":"Bolt.ValueConnection"},{"position":{"xMin":-344.0,"yMin":-224.3333,"xMax":348.0,"yMax":95.66667},"label":"Calculate
      Direction & Movement","comment":null,"color":{"r":0.0,"g":0.0,"b":0.0,"a":1.0},"guid":"83120aa8-df95-432c-9666-03814f8624fa","$version":"A","$type":"Ludiq.GraphGroup"},{"position":{"xMin":375.0,"yMin":-226.0,"xMax":849.0,"yMax":146.0},"label":"Flip","comment":null,"color":{"r":0.0,"g":0.0,"b":0.0,"a":1.0},"guid":"ec701e34-856c-4fc8-9e96-957e80981dce","$version":"A","$type":"Ludiq.GraphGroup"},{"position":{"xMin":893.0,"yMin":-231.0,"xMax":1571.0,"yMax":121.0},"label":"Set
      Velocity","comment":null,"color":{"r":0.0,"g":0.0,"b":0.0,"a":1.0},"guid":"1f53b0ad-0157-44df-8b18-4a7211244451","$version":"A","$type":"Ludiq.GraphGroup"},{"position":{"xMin":1595.0,"yMin":-235.0,"xMax":2139.0,"yMax":-33.0},"label":"Animation","comment":null,"color":{"r":0.0,"g":0.0,"b":0.0,"a":1.0},"guid":"a46e4b80-b8fd-4d7d-ba46-20a5a8d56fc1","$version":"A","$type":"Ludiq.GraphGroup"}],"$version":"A"}}'
    _objectReferences: []
